{
  "images" : [
    {
      "idiom" : "universal",
      "filename" : "check-in-out-arrow_48pt.png",
      "scale" : "1x"
    },
    {
      "idiom" : "universal",
      "filename" : "check-in-out-arrow_48pt_2x.png",
      "scale" : "2x"
    },
    {
      "idiom" : "universal",
      "filename" : "check-in-out-arrow_48pt_3x.png",
      "scale" : "3x"
    }
  ],
  "info" : {
    "version" : 1,
    "author" : "xcode"
  }
}